<?xml version="1.0" encoding="UTF-8" standalone="no"?>
<!-- Created with Inkscape (http://www.inkscape.org/) -->

<svg
   xmlns:dc="http://purl.org/dc/elements/1.1/"
   xmlns:cc="http://creativecommons.org/ns#"
   xmlns:rdf="http://www.w3.org/1999/02/22-rdf-syntax-ns#"
   xmlns:svg="http://www.w3.org/2000/svg"
   xmlns="http://www.w3.org/2000/svg"
   xmlns:sodipodi="http://sodipodi.sourceforge.net/DTD/sodipodi-0.dtd"
   xmlns:inkscape="http://www.inkscape.org/namespaces/inkscape"
   width="239"
   height="156.50447"
   id="svg2"
   version="1.1"
   inkscape:version="0.48.3.1 r9886"
   sodipodi:docname="New document 1">
  <sodipodi:namedview
     id="base"
     pagecolor="#ffffff"
     bordercolor="#666666"
     borderopacity="1.0"
     inkscape:pageopacity="0.0"
     inkscape:pageshadow="2"
     inkscape:zoom="2.8"
     inkscape:cx="119.5"
     inkscape:cy="74.004487"
     inkscape:document-units="px"
     inkscape:current-layer="layer1"
     showgrid="false"
     inkscape:window-width="1020"
     inkscape:window-height="729"
     inkscape:window-x="0"
     inkscape:window-y="18"
     inkscape:window-maximized="0"
     fit-margin-top="10"
     fit-margin-left="10"
     fit-margin-right="10"
     fit-margin-bottom="10" />
  <defs
     id="defs4" />
  <metadata
     id="metadata7">
    <rdf:RDF>
      <cc:Work
         rdf:about="">
        <dc:format>image/svg+xml</dc:format>
        <dc:type
           rdf:resource="http://purl.org/dc/dcmitype/StillImage" />
        <dc:title></dc:title>
      </cc:Work>
    </rdf:RDF>
  </metadata>
  <g
     inkscape:label="Layer 1"
     inkscape:groupmode="layer"
     id="layer1"
     transform="translate(-255.5,-549.8622)">
    <g
       inkscape:label="Hershey Text"
       transform="translate(278,572.3622)"
       id="g2990">
      <path
         inkscape:connector-curvature="0"
         style="fill:none;stroke:#000000"
         d="m 7,-9 -2,-2 -3,-1 -4,0 -3,1 -2,2 0,2 1,2 1,1 2,1 6,2 L 5,0 6,1 7,3 7,6 5,8 2,9 -2,9 -5,8 -7,6"
         transform="translate(10,0)"
         id="path2992" />
      <path
         inkscape:connector-curvature="0"
         style="fill:none;stroke:#000000"
         d="M 0,-12 0,5 1,8 3,9 5,9 m -8,-14 7,0"
         transform="translate(25,0)"
         id="path2994" />
      <path
         inkscape:connector-curvature="0"
         style="fill:none;stroke:#000000"
         d="m -3,-5 0,14 m 0,-8 1,-3 2,-2 2,-1 3,0"
         transform="translate(39,0)"
         id="path2996" />
      <path
         inkscape:connector-curvature="0"
         style="fill:none;stroke:#000000"
         d="m -1,-5 -2,1 -2,2 -1,3 0,2 1,3 2,2 2,1 L 2,9 4,8 6,6 7,3 7,1 6,-2 4,-4 2,-5 -1,-5"
         transform="translate(54,0)"
         id="path2998" />
      <path
         inkscape:connector-curvature="0"
         style="fill:none;stroke:#000000"
         d="M -5,-12 -5,9 M 5,-5 -5,5 m 4,-4 7,8"
         transform="translate(73,0)"
         id="path3000" />
      <path
         inkscape:connector-curvature="0"
         style="fill:none;stroke:#000000"
         d="M -6,1 6,1 6,-1 5,-3 4,-4 2,-5 l -3,0 -2,1 -2,2 -1,3 0,2 1,3 2,2 2,1 3,0 2,-1 2,-2"
         transform="translate(90,0)"
         id="path3002" />
      <path
         inkscape:connector-curvature="0"
         style="fill:none;stroke:#000000"
         d=""
         transform="translate(107,0)"
         id="path3004" />
      <path
         inkscape:connector-curvature="0"
         style="fill:none;stroke:#000000"
         d="m 5,-12 -2,0 -2,1 -1,3 0,17 m -3,-14 7,0"
         transform="translate(120,0)"
         id="path3006" />
      <path
         inkscape:connector-curvature="0"
         style="fill:none;stroke:#000000"
         d="m -1,-5 -2,1 -2,2 -1,3 0,2 1,3 2,2 2,1 L 2,9 4,8 6,6 7,3 7,1 6,-2 4,-4 2,-5 -1,-5"
         transform="translate(136,0)"
         id="path3008" />
      <path
         inkscape:connector-curvature="0"
         style="fill:none;stroke:#000000"
         d="m -5,-5 0,14 m 0,-10 3,-3 2,-1 3,0 2,1 1,3 0,10"
         transform="translate(155,0)"
         id="path3010" />
      <path
         inkscape:connector-curvature="0"
         style="fill:none;stroke:#000000"
         d="M 0,-12 0,5 1,8 3,9 5,9 m -8,-14 7,0"
         transform="translate(170,0)"
         id="path3012" />
      <path
         inkscape:connector-curvature="0"
         style="fill:none;stroke:#000000"
         d="m 6,-2 -1,-2 -3,-1 -3,0 -3,1 -1,2 1,2 2,1 L 3,2 5,3 6,5 6,6 5,8 2,9 -1,9 -4,8 -5,6"
         transform="translate(185,0)"
         id="path3014" />
    </g>
    <g
       id="g3050"
       transform="translate(273.14286,609.50506)"
       inkscape:label="Hershey Text">
      <path
         inkscape:connector-curvature="0"
         id="path3052"
         transform="translate(10,0)"
         d="m 7,-9 -2,-2 -3,-1 -4,0 -3,1 -2,2 0,2 1,2 1,1 2,1 5,2 L 4,0 5,1 6,3 6,6 5,7 2,8 -2,8 -4,7 -5,6 -7,6 m 14,-15 -2,0 -1,-1 -2,-1 -4,0 -3,1 -1,1 0,2 1,2 2,1 5,2 2,1 L 6,1 7,3 7,6 5,8 2,9 -2,9 -5,8 -7,6"
         style="fill:none;stroke:#000000" />
      <path
         inkscape:connector-curvature="0"
         id="path3054"
         transform="translate(25,0)"
         d="M 0,-12 0,9 1,9 m -1,-21 1,0 0,21 m -4,-14 7,0 0,1 m -7,-1 0,1 7,0"
         style="fill:none;stroke:#000000" />
      <path
         inkscape:connector-curvature="0"
         id="path3056"
         transform="translate(38,0)"
         d="m -3,-5 0,14 1,0 m -1,-14 1,0 0,14 m 0,-8 1,-3 2,-2 2,-1 3,0 m -8,6 1,-2 2,-2 2,-1 3,0 0,-1"
         style="fill:none;stroke:#000000" />
      <path
         inkscape:connector-curvature="0"
         id="path3058"
         transform="translate(54,0)"
         d="m -1,-5 -2,1 -2,2 -1,3 0,2 1,3 2,2 2,1 L 2,9 4,8 6,6 7,3 7,1 6,-2 4,-4 2,-5 -1,-5 m 0,1 -2,1 -1,1 -1,3 0,2 1,3 1,1 2,1 L 2,8 4,7 5,6 6,3 6,1 5,-2 4,-3 2,-4 -1,-4"
         style="fill:none;stroke:#000000" />
      <path
         inkscape:connector-curvature="0"
         id="path3060"
         transform="translate(74,0)"
         d="m -6,-12 0,21 1,0 m -1,-21 1,0 0,21 M 6,-5 5,-5 -5,5 M 6,-5 -5,6 M -2,2 4,9 6,9 M -1,1 6,9"
         style="fill:none;stroke:#000000" />
      <path
         inkscape:connector-curvature="0"
         id="path3062"
         transform="translate(92,0)"
         d="M -5,2 6,2 6,-1 5,-3 4,-4 2,-5 l -3,0 -2,1 -2,2 -1,3 0,2 1,3 2,2 2,1 L 2,9 4,8 6,6 M -5,1 5,1 5,-1 4,-3 2,-4 l -3,0 -2,1 -1,1 -1,3 0,2 1,3 1,1 2,1 3,0 2,-1 1,-2 1,1"
         style="fill:none;stroke:#000000" />
      <path
         inkscape:connector-curvature="0"
         id="path3064"
         transform="translate(109,0)"
         d=""
         style="fill:none;stroke:#000000" />
      <path
         inkscape:connector-curvature="0"
         id="path3066"
         transform="translate(123,0)"
         d="m 5,-12 -2,0 -2,1 -1,3 0,17 1,0 m 4,-21 0,1 -2,0 -2,1 m 1,-1 -1,3 0,17 m -4,-14 7,0 0,1 m -7,-1 0,1 7,0"
         style="fill:none;stroke:#000000" />
      <path
         inkscape:connector-curvature="0"
         id="path3068"
         transform="translate(140,0)"
         d="m -1,-5 -2,1 -2,2 -1,3 0,2 1,3 2,2 2,1 L 2,9 4,8 6,6 7,3 7,1 6,-2 4,-4 2,-5 -1,-5 m 0,1 -2,1 -1,1 -1,3 0,2 1,3 1,1 2,1 L 2,8 4,7 5,6 6,3 6,1 5,-2 4,-3 2,-4 -1,-4"
         style="fill:none;stroke:#000000" />
      <path
         inkscape:connector-curvature="0"
         id="path3070"
         transform="translate(160,0)"
         d="m -6,-5 0,14 1,0 m -1,-14 1,0 0,14 m 0,-10 3,-3 2,-1 3,0 2,1 1,3 0,10 m -11,-10 3,-2 2,-1 2,0 2,1 1,2 0,10 1,0"
         style="fill:none;stroke:#000000" />
      <path
         inkscape:connector-curvature="0"
         id="path3072"
         transform="translate(175,0)"
         d="M 0,-12 0,9 1,9 m -1,-21 1,0 0,21 m -4,-14 7,0 0,1 m -7,-1 0,1 7,0"
         style="fill:none;stroke:#000000" />
      <path
         inkscape:connector-curvature="0"
         id="path3074"
         transform="translate(189,0)"
         d="m 6,-2 -1,-2 -3,-1 -3,0 -3,1 -1,2 1,2 2,1 5,2 2,1 M 4,3 5,5 5,6 4,8 M 5,7 2,8 -1,8 -4,7 M -3,8 -4,6 -5,6 M 6,-2 5,-2 4,-4 m 1,1 -3,-1 -3,0 -3,1 m 1,-1 -1,2 1,2 M -4,-1 -2,0 3,2 5,3 6,5 6,6 5,8 2,9 -1,9 -4,8 -5,6"
         style="fill:none;stroke:#000000" />
    </g>
    <g
       inkscape:label="Hershey Text"
       transform="translate(264,649.50506)"
       id="g3136">
      <path
         inkscape:connector-curvature="0"
         style="fill:none;stroke:#000000"
         d="m 8,-10 1,0 1,-2 -1,6 0,-2 -1,-2 -1,-1 -3,-1 -4,0 -3,1 -2,2 0,3 1,2 2,2 6,3 1,2 0,3 -1,2 m -8,-14 1,2 7,4 1,2 m -8,-13 -1,2 0,2 1,2 6,3 L 5,0 6,2 6,5 5,7 4,8 1,9 -3,9 -6,8 -7,7 -8,5 -8,3 -9,9 -8,7 -7,7"
         transform="translate(11,0)"
         id="path3138" />
      <path
         inkscape:connector-curvature="0"
         style="fill:none;stroke:#000000"
         d="M 2,-12 -1,-1 -2,3 -2,6 -1,8 0,9 2,9 4,7 5,5 M 3,-12 0,-1 -1,3 -1,8 M 2,-12 4,-12 0,2 -1,6 M -4,-5 6,-5"
         transform="translate(30,0)"
         id="path3140" />
      <path
         inkscape:connector-curvature="0"
         style="fill:none;stroke:#000000"
         d="m -8,-1 1,-2 2,-2 2,0 1,1 1,2 0,4 -2,7 m 1,-13 0,6 -2,7 m 2,-11 -1,4 -2,7 2,0 M 7,-3 7,-4 6,-4 6,-2 8,-2 8,-4 7,-5 5,-5 3,-4 1,-2 -1,2"
         transform="translate(46,0)"
         id="path3142" />
      <path
         inkscape:connector-curvature="0"
         style="fill:none;stroke:#000000"
         d="m -1,-5 -3,1 -2,3 -1,3 0,2 1,3 1,1 3,1 L 1,9 4,8 6,5 7,2 7,0 6,-3 5,-4 2,-5 -1,-5 m -3,2 -1,2 -1,3 0,3 1,2 M 4,7 5,5 6,2 6,-1 5,-3 m -6,-2 -2,2 -1,2 -1,3 0,3 1,3 2,1 M 1,9 3,7 4,5 5,2 5,-1 4,-4 2,-5"
         transform="translate(65,0)"
         id="path3144" />
      <path
         inkscape:connector-curvature="0"
         style="fill:none;stroke:#000000"
         d="m -3,-12 -6,21 2,0 m 5,-21 -6,21 m 2,-21 5,0 -6,21 M 7,-3 7,-4 6,-4 6,-2 8,-2 8,-4 7,-5 5,-5 3,-4 -1,0 -3,1 m -2,0 2,0 2,1 1,1 2,4 1,1 2,0 M -1,3 1,7 2,8 M -3,1 -2,2 0,8 1,9 3,9 5,8 7,5 m -12,-17 3,1 m -2,-1 1,2"
         transform="translate(86,0)"
         id="path3146" />
      <path
         inkscape:connector-curvature="0"
         style="fill:none;stroke:#000000"
         d="M -5,4 -1,3 2,2 5,0 6,-2 5,-4 3,-5 l -3,0 -3,1 -2,3 -1,3 0,2 1,3 1,1 2,1 2,0 3,-1 2,-2 m -8,-9 -1,2 -1,3 0,3 1,2 m 4,-12 -2,2 -1,2 -1,3 0,3 1,3 1,1"
         transform="translate(106,0)"
         id="path3148" />
      <path
         inkscape:connector-curvature="0"
         style="fill:none;stroke:#000000"
         d=""
         transform="translate(123,0)"
         id="path3150" />
      <path
         inkscape:connector-curvature="0"
         style="fill:none;stroke:#000000"
         d="m 8,-10 0,-1 -1,0 0,2 2,0 0,-2 -1,-1 -2,0 -2,1 -2,2 -1,2 -1,3 -1,4 -2,9 -1,3 -1,2 -2,2 M 2,-8 1,-5 0,0 -2,9 -3,12 m 9,-24 -2,2 -1,2 -1,3 -1,5 -2,8 -1,3 -1,2 -2,2 -2,1 -2,0 -1,-1 0,-2 2,0 0,2 -1,0 0,-1 m 5,-19 11,0"
         transform="translate(139,0)"
         id="path3152" />
      <path
         inkscape:connector-curvature="0"
         style="fill:none;stroke:#000000"
         d="m -1,-5 -3,1 -2,3 -1,3 0,2 1,3 1,1 3,1 L 1,9 4,8 6,5 7,2 7,0 6,-3 5,-4 2,-5 -1,-5 m -3,2 -1,2 -1,3 0,3 1,2 M 4,7 5,5 6,2 6,-1 5,-3 m -6,-2 -2,2 -1,2 -1,3 0,3 1,3 2,1 M 1,9 3,7 4,5 5,2 5,-1 4,-4 2,-5"
         transform="translate(157,0)"
         id="path3154" />
      <path
         inkscape:connector-curvature="0"
         style="fill:none;stroke:#000000"
         d="m -11,-1 1,-2 2,-2 2,0 1,1 1,2 0,3 -2,8 m 1,-13 0,5 -2,8 m 2,-11 -1,4 -2,7 2,0 m 2,-8 2,-3 2,-2 2,-1 2,0 2,1 1,2 0,3 -2,5 M 6,-4 6,0 5,4 5,8 M 6,-2 4,3 4,6 5,8 6,9 8,9 10,7 11,5"
         transform="translate(179,0)"
         id="path3156" />
      <path
         inkscape:connector-curvature="0"
         style="fill:none;stroke:#000000"
         d="M 2,-12 -1,-1 -2,3 -2,6 -1,8 0,9 2,9 4,7 5,5 M 3,-12 0,-1 -1,3 -1,8 M 2,-12 4,-12 0,2 -1,6 M -4,-5 6,-5"
         transform="translate(198,0)"
         id="path3158" />
      <path
         inkscape:connector-curvature="0"
         style="fill:none;stroke:#000000"
         d="m 6,-2 0,-1 -1,0 0,2 2,0 0,-2 -1,-1 -3,-1 -3,0 -3,1 -1,1 0,2 1,2 2,1 3,1 2,1 1,2 m -8,-10 -1,3 m 1,1 2,1 3,1 2,1 M 5,4 4,8 m -8,-11 1,2 2,1 3,1 2,1 1,2 0,2 -1,2 -3,1 -3,0 -3,-1 -1,-1 0,-2 2,0 0,2 -1,0 0,-1"
         transform="translate(213,0)"
         id="path3160" />
    </g>
    <g
       id="g3248"
       transform="translate(282,686.64792)"
       inkscape:label="Hershey Text">
      <path
         id="path3250"
         transform="translate(11,0)"
         d="m 3,-9 -1,-1 -2,-1 -3,-1 m 7,2 -2,-1 m 3,0 -4,-1 -4,0 -3,1 -1,1 -1,2 1,2 1,1 3,1 8,0 2,1 1,1 0,2 -1,3 m -14,-10 1,1 3,1 9,0 2,1 1,1 0,2 -1,2 m -15,-11 0,2 1,1 3,1 10,0 2,1 1,2 0,2 -3,4 -4,6 m -12,-12 1,1 2,1 9,0 1,1 0,1 -1,2 m -11,-4 2,1 8,0 1,1 m -12,-4 0,1 1,2 2,1 7,0 2,1 0,1 M -9,9 -6,7 -2,6 1,6 4,7 M -7,8 -4,7 0,7 3,8 M -9,9 -5,8 0,8 3,9 m 2,-20 -2,2 -2,3 m -1,2 -2,3 m -1,2 -2,2 -2,1 -1,0 0,-1 1,1"
         style="fill:none;stroke:#000000"
         inkscape:connector-curvature="0" />
      <path
         id="path3252"
         transform="translate(28,0)"
         d="m -2,-10 1,2 0,14 -2,1 1,0 2,1 1,1 M 0,-8 -1,-10 0,-11 0,7 2,8 M -2,-10 1,-12 1,6 3,7 4,7 2,8 1,9 m -5,-14 3,0 m 2,0 3,0"
         style="fill:none;stroke:#000000"
         inkscape:connector-curvature="0" />
      <path
         id="path3254"
         transform="translate(41,0)"
         d="m -6,-3 1,0 1,1 0,8 -2,1 1,0 2,1 1,1 m -3,-13 2,1 0,10 2,1 m -5,-11 2,-2 2,2 0,9 2,1 1,0 -2,1 -1,1 m 0,-12 4,-2 1,1 2,1 1,0 m -5,-1 1,1 2,0 m -4,-1 2,2 2,0 2,-1"
         style="fill:none;stroke:#000000"
         inkscape:connector-curvature="0" />
      <path
         id="path3256"
         transform="translate(56,0)"
         d="m -5,-3 0,9 -2,1 m 3,-9 0,8 3,2 m -2,-11 0,9 2,1 1,1 m -7,-1 2,0 2,1 1,1 2,-1 3,-1 2,0 m -10,-10 2,0 3,-1 2,-1 1,1 2,1 2,0 -2,1 0,9 M 1,-4 4,-2 4,6 m -4,-10 1,1 2,1 0,9"
         style="fill:none;stroke:#000000"
         inkscape:connector-curvature="0" />
      <path
         id="path3258"
         transform="translate(74,0)"
         d="m -6,-10 1,2 0,14 -2,1 1,0 2,1 1,1 m -1,-17 -1,-2 1,-1 0,18 2,1 m -4,-18 3,-2 0,18 2,1 -2,2 m 0,-11 3,-2 2,-1 2,3 -3,2 -4,3 m 4,-7 2,2 M 0,-4 2,-1 M 1,0 2,1 4,6 5,7 6,7 M 1,1 2,2 3,7 4,8 M 0,1 1,2 2,7 4,9 6,7"
         style="fill:none;stroke:#000000"
         inkscape:connector-curvature="0" />
      <path
         id="path3260"
         transform="translate(90,0)"
         d="m -4,-3 0,9 -2,1 1,0 2,1 1,1 M -3,-3 -3,7 -1,8 M -2,-3 -2,6 0,7 1,7 -1,8 -2,9 M -4,-3 0,-4 2,-5 5,-1 3,0 -2,3 m 3,-7 3,3 m -6,-2 2,-1 3,4"
         style="fill:none;stroke:#000000"
         inkscape:connector-curvature="0" />
      <path
         id="path3262"
         transform="translate(104,0)"
         d=""
         style="fill:none;stroke:#000000"
         inkscape:connector-curvature="0" />
      <path
         id="path3264"
         transform="translate(120,0)"
         d="m -4,-10 0,16 -2,1 1,0 2,1 1,1 m -1,-19 0,17 2,1 m -1,-18 0,16 2,1 1,0 -2,1 -1,1 m -2,-19 3,-1 2,-1 1,1 2,1 1,0 m -5,-1 1,1 2,0 m -5,0 1,-1 2,2 2,0 2,-1 m -12,5 3,0 m 2,0 4,0"
         style="fill:none;stroke:#000000"
         inkscape:connector-curvature="0" />
      <path
         id="path3266"
         transform="translate(134,0)"
         d="m -5,-3 0,9 -2,1 m 3,-9 0,8 3,2 m -2,-11 0,9 2,1 1,1 m -7,-1 2,0 2,1 1,1 2,-1 3,-1 2,0 m -10,-10 2,0 3,-1 2,-1 1,1 2,1 2,0 -2,1 0,9 M 1,-4 4,-2 4,6 m -4,-10 1,1 2,1 0,9"
         style="fill:none;stroke:#000000"
         inkscape:connector-curvature="0" />
      <path
         id="path3268"
         transform="translate(152,0)"
         d="m -7,-3 1,0 1,1 0,8 -2,1 1,0 2,1 1,1 m -2,-13 1,1 0,10 2,1 m -5,-11 2,-2 2,2 0,9 2,1 -2,2 m 0,-11 3,-1 2,-1 1,-1 1,1 2,1 1,0 -2,1 0,8 1,1 1,0 M 2,-4 4,-3 4,7 5,8 M 0,-3 1,-3 3,-2 3,7 5,9 7,7"
         style="fill:none;stroke:#000000"
         inkscape:connector-curvature="0" />
      <path
         id="path3270"
         transform="translate(166,0)"
         d="m -2,-10 1,2 0,14 -2,1 1,0 2,1 1,1 M 0,-8 -1,-10 0,-11 0,7 2,8 M -2,-10 1,-12 1,6 3,7 4,7 2,8 1,9 m -5,-14 3,0 m 2,0 3,0"
         style="fill:none;stroke:#000000"
         inkscape:connector-curvature="0" />
      <path
         id="path3272"
         transform="translate(179,0)"
         d="m -5,-3 0,4 2,1 6,0 2,1 0,4 m -9,-10 0,4 m 8,2 0,4 m -6,-11 -1,1 0,4 2,1 M 1,2 3,3 3,7 2,8 m -7,-11 3,-1 2,-1 2,1 2,0 1,-1 m -6,1 2,0 m -3,0 2,1 2,0 2,-1 M 5,7 2,8 0,9 -2,8 -4,8 -6,9 M 1,8 -1,8 M 2,8 0,7 -3,7 -6,9 M 5,-5 4,-3 2,0 -3,5 -6,9"
         style="fill:none;stroke:#000000"
         inkscape:connector-curvature="0" />
    </g>
  </g>
</svg>
